{
    "CompositingType": 2,
    "KPlugin": {
        "Description": "KWin Compositor plugin rendering through XRender",
        "Description[az]": "XRender avsitəsi ilə KWin birləşdirici əlavəsini formalaşdırmaq",
        "Description[ca@valencia]": "Connector del Compositor de KWin que renderitza a través de XRender",
        "Description[ca]": "Connector del Compositor del KWin que renderitza a través del XRender",
        "Description[da]": "KWin-compositorplugin som renderer igennem XRender",
        "Description[de]": "KWin-Compositor-Modul zum Rendern mit XRender",
        "Description[el]": "Αποτύπωση πρσοθέτου συνθέτη KWin μέσω XRender",
        "Description[en_GB]": "KWin Compositor plugin rendering through XRender",
        "Description[es]": "Complemento compositor de KWin renderizando mediante XRender",
        "Description[et]": "KWini komposiitori plugin renderdamiseks XRender'i abil",
        "Description[eu]": "Kwin konposatzailearen plugina XRender bidez errendatzen",
        "Description[fi]": "XRenderillä hahmontava KWin-koostajaliitännäinen",
        "Description[fr]": "Module du compositeur KWin effectuant le rendu avec XRender",
        "Description[gl]": "Complemento de compositor de KWin que renderiza a través de XRender.",
        "Description[hu]": "KWin összeállító bővítmény XRender leképezéssel",
        "Description[id]": "Plugin KWin Compositor perenderan melalui XRender",
        "Description[it]": "Estensione del compositore di KWin per la resa tramite XRender",
        "Description[ko]": "XRender로 렌더링하는 KWin 컴포지터 플러그인",
        "Description[lt]": "KWin kompozitoriaus priedas atvaizdavimui per XRender",
        "Description[nl]": "KWin-compositor-plug-in rendering via XRender",
        "Description[nn]": "KWin-samansetjartillegg som brukar XRender",
        "Description[pl]": "Wtyczka kompozytora KWin wyświetlająca przez XRender",
        "Description[pt]": "'Plugin' de Composição do KWin com desenho via XRender",
        "Description[pt_BR]": "Plugin do compositor KWin renderizando pelo XRender",
        "Description[ru]": "Отрисовка подключаемым модулем компоновщика KWin через XRender",
        "Description[sk]": "Renderovací plugin kompozítora KWin cez XRender",
        "Description[sl]": "Izrisovanje vstavka upravljalnika skladnje KWin preko XRender-ja",
        "Description[sr@ijekavian]": "К‑винов прикључак слагача за рендеровање кроз Икс‑рендер",
        "Description[sr@ijekavianlatin]": "KWinov priključak slagača za renderovanje kroz XRender",
        "Description[sr@latin]": "KWinov priključak slagača za renderovanje kroz XRender",
        "Description[sr]": "К‑винов прикључак слагача за рендеровање кроз Икс‑рендер",
        "Description[sv]": "Kwin sammansättningsinsticksprogram återger via XRender",
        "Description[tr]": "XRender üzerinden KWin Dizgici eklentisi oluşturma",
        "Description[uk]": "Додаток засобу композиції KWin для обробки з використанням XRender",
        "Description[x-test]": "xxKWin Compositor plugin rendering through XRenderxx",
        "Description[zh_CN]": "使用 XRender 渲染的 KWin 显示特效混合器插件",
        "Description[zh_TW]": "透過 XRender 繪製 KWin 合成器附加元件",
        "Id": "KWinSceneXRender",
        "Name": "SceneXRender",
        "Name[az]": "SceneXRender",
        "Name[ca@valencia]": "SceneXRender",
        "Name[ca]": "SceneXRender",
        "Name[cs]": "SceneXRender",
        "Name[da]": "SceneXRender",
        "Name[de]": "SceneXRender",
        "Name[el]": "SceneXRender",
        "Name[en_GB]": "SceneXRender",
        "Name[es]": "SceneXRender",
        "Name[et]": "SceneXRender",
        "Name[eu]": "SceneXRender",
        "Name[fi]": "SceneXRender",
        "Name[fr]": "SceneXRender",
        "Name[gl]": "SceneXRender",
        "Name[hu]": "SceneXRender",
        "Name[id]": "SceneXRender",
        "Name[it]": "SceneXRender",
        "Name[ko]": "SceneXRender",
        "Name[lt]": "SceneXRender",
        "Name[nl]": "SceneXRender",
        "Name[nn]": "SceneXRender",
        "Name[pa]": "ਸੀਨ-ਐਕਸ-ਰੈਂਡਰ",
        "Name[pl]": "XRender sceny",
        "Name[pt]": "SceneXRender",
        "Name[pt_BR]": "SceneXRender",
        "Name[ro]": "SceneXRender",
        "Name[ru]": "SceneXRender",
        "Name[sk]": "SceneXRender",
        "Name[sl]": "SceneXRender",
        "Name[sr@ijekavian]": "Икс‑рендер-сцена",
        "Name[sr@ijekavianlatin]": "XRender-scena",
        "Name[sr@latin]": "XRender-scena",
        "Name[sr]": "Икс‑рендер-сцена",
        "Name[sv]": "Scen XRender",
        "Name[tr]": "SceneXRender",
        "Name[uk]": "SceneXRender",
        "Name[x-test]": "xxSceneXRenderxx",
        "Name[zh_CN]": "SceneXRender",
        "Name[zh_TW]": "SceneXRender"
    }
}
